nb_neurons_per_layer;nb__hidden_layers;is_resnet
28;1;True
28;1;False
28;2;True
28;2;False
28;3;True
28;3;False
189;1;True
189;1;False
189;2;True
189;2;False
189;3;True
189;3;False
350;1;True
350;1;False
350;2;True
350;2;False
350;3;True
350;3;False
512;1;True
512;1;False
512;2;True
512;2;False
512;3;True
512;3;False
